Compute similarity based on trajectory — compute_similarity • tdapseudotime
…
#> 4028 0.23809524 0.10416667 2.115131e-19 0.5040245         2>4
#> 4029 0.28571429 0.12500000 5.749522e-19 0.5231317       1>2>4
#> 4030 0.23809524 0.10416667 2.115131e-19 0.5605549         3>4
#> 4031 0.19047619 0.08333333 7.781132e-20 0.5591744         3>4
#> 4032 0.14285714 0.06250000 2.862519e-20 0.5834974           4
#> 4033 0.37500000 0.13636364 1.299581e-24 0.6151611       1>3>4
#> 4034 0.21739130 0.07575758 8.756511e-27 0.4654192         2>4
#> 4035 0.12500000 0.04545455 3.221340e-27 0.4880013         2>4
#> 4036 0.21739130 0.07575758 8.756511e-27 0.4805707       1>2>4
#> 4037 0.17391304 0.06060606 3.221340e-27 0.5915751         3>4
#> 4038 0.13043478 0.04545455 1.185065e-27 0.5060875         3>4
#> 4039 0.08695652 0.03030303 4.359610e-28 0.4562788           4
#> 
#> [[2]]
#> # A tibble: 26,507 x 4
#>    covid_id    id  node cluster
#>       <int> <int> <int> <fct>  
#>  1        1     1     6 1      
#>  2        1     1     7 1      
#>  3        1     1    11 3      
#>  4        1     1    12 3      
#>  5        1     2    13 3      
#>  6        1     2    14 4      
#>  7        1     2    18 3      
#>  8        1     2    19 4      
#>  9        1     3     4 2      
#> 10        1     3     5 2      
#> # … with 26,497 more rows
…
